1,135000,1FTEW1EG5JFD08182,LOG INDUSTRIAL SA DE CV,MIGUEL CALZADA,Moral,4422120348,4421658178,9% - 9% SUB LOBO 18,"284,130.00",36,24/07/18,01/08/21,11.71,"26,145.42","790,488.63",FORD,LOBO,G6J PLA,Nuevo,2018,SALVADOR JIMENEZ,29,ADMONPOLOYSKI@HOTMAIL.COM
2,207231,1FA6P8TH3K5111210,ALCANTARA ZUÑIGA,JUANITA SUGEY,Persona Física con actividad Empresarial,42-7272-0639,42-7272-0639,_. - _. COMERCIAL 12-72,"119,800.00",18,04/01/20,16/07/21,14.99,"32,888.35","527,225.16",FORD,MUSTANG,MPJ ECO,Nuevo,2019,ALEJANDRA SALAZAR,30,JSUGEYAZ@HOTMAIL.COM 
3,614371,WF0WS4NV3GTB41833,BARRIOS PEREZ,MA. DE LOURDES TERESA,Persona Física,44-2223-6913,44-2223-6913,4H - TRUCKS 12-60,"128,840.00",48,22/03/16,01/04/20,11.9,"14,743.04","528,966.29",FORD,TRANSIT,18 PAS,Nuevo,2016,ADRIAN CAMARILLO,25,LULU_TRANSPORTEJLM@HOTMAIL.COM
4,625431,1FDWF3G64HEC71772,BALBINO ARTEAGA,MIGUEL,Persona Física,46-6121-2822,46-6664-1899,T2 - T2 COM UBINP F-35017,"223,320.00",32,06/03/18,16/11/20,16.13,"9,025.90","340,080.00",FORD,F-350,K6D/A X,Nuevo,2017,JUAN CARLOS TORRES ,31,PUMITABALBINO97@HOTMAIL.COM
5,619999,1FMJU1KT8KEA46957,GODINEZ PINEDA,FRANCISCA VIANET,Persona Física,4422474084,4426880999,!$ - !$ SUB INDEP 12/0,"602,050.00",18,10/06/19,16/12/20,5.88,"37,271.25","632,135.00",FORD,EXPEDITION,V1Z LIM,Nuevo,2019,ALEJANDRA SALAZAR,30,FRANCISCAVIANET@YAHOO.COM.MX
6,273890,1FDWF3G68HEC71693,CORPORACION L0GISTICA NAVARRO SA DE CV,,Moral,44426881146,44-2246-3829,$W - $W COM F-350 17,"159,750.00",24,29/08/17,01/09/19,9.22,"17,066.98","372,750.00",FORD,F-350,XL MT 1,Nuevo,2017,RAUL OLVERA,29,ADMINISTRACION@TRANSPORTESNAVARRO.COM.MX
7,271827,WF0RS5HP7JTA75407,RODRIGUEZ SALAZAR,ALEJANDRA,Persona Física,4422352345,4425929100,B} - B} SUB INDEP TRANS18,"117,816.25",36,04/10/18,16/10/21,10.09,"13,511.69","401,514.90",FORD,TRANSIT,N3A VAN,Nuevo,2018,HUMBERTO LEDESMA,29,ALEJANDRA@GORILLAZLT.COM.MX
8,308409,1FTMF1E52JKE99674,ABOYTES FUENTES,RODOLFO ANTONIO,Persona Física,4421114339,4272743100,G- - G- SUB INDEP LOB 18,"350,000.00",18,28/11/18,01/06/20,4.92,"21,119.64","361,634.52",FORD,LOBO,G2E XLT,Nuevo,2018,DIEGO ZAMORA ,34,PANDAABOYTES@GMAIL.COM
9,219179,WF06S5JP3GTA17770,RAMIREZ BARCENAS,ALFREDO,Persona Física,4482751255,4481126856,M@ - M@ STD 6-60,"98,040.00",37,28/07/17,01/09/20,14.99,"15,019.01","409,694.03",FORD,TRANSIT,L PASS,Nuevo,2016,ALDEMAR DORANTES,26,GCM_TRANSPORTES@OUTLOOK.COM
10,257631,3FA6P0H9XFR246576,RODRIGUEZ VARELA,ROGELIO ALEJANDRO,Persona Física,4421579264,4421981356,GW - SUB NC 12-60 18/0,"100,000.00",48,22/08/15,01/09/19,8.49,"8,196.57","317,990.00",FORD,FUSION,SE NAV,Nuevo,2015,ULISES ARGUELLO,30,AROVA7@GMAIL.COM
11,450059,8AFWR5AAXH6472101,COMERCIALIZADORA DE INSUMOS METALICOS PA,,Moral,4426902524,4421101865,$I - $I COM RANGER 17,"81,200.00",24,28/11/17,01/12/19,9.49,"16,241.34","353,747.88",FORD,RANGER,J1E XLT,Nuevo,2017,ALDEMAR DORANTES,26,RICARDO.BECERRIL@CIMEF.MX
12,291910,WF0CP6B99J1C68239,ORTEGA TORRES,ADRIANA,Persona Física con actividad Empresarial,4421278573,4426721295,F) - F) COM ESCAPE 18,"197,000.00",24,12/10/18,16/10/20,14.05,"15,027.17","312,834.26",FORD,ESCAPE,H1J TIT,Nuevo,2018,ALDEMAR DORANTES,26,ORTEGAVENTAS1@GMAIL.COM
13,180985,MAJFP1MD8JA177809,ANTUNEZ RODRIGUEZ,PABLO,Persona Física,4434314639,4424036528,3¿ - 3¿ SUB FIGO 18,"60,000.00",36,08/08/18,16/08/21,5.27,"4,123.53","133,900.00",FORD,FIGO,X5D IMP,Nuevo,2018,GUADALUPE SAN GABRIEL ,4,MILARI130215@GMAIL.COM
14,155912,WF0CP6A77G1B83523,ARRIAGA GUZMAN,CINTHYA MARLENE,Persona Física,55-6583-6550,55-5586-7873,KZ - SUB 12-60 24/0,"120,000.00",48,18/07/16,01/08/20,7.08,"7,511.86","301,378.81",FORD,ESCAPE,T ADV 1,Nuevo,2016,MIGUEL ANGEL DE LEON ,32,arriaga.cinthya@gmail.com
15,239866,3FA6P0K97DR334491,JUAREZ ARROYO,MIGUEL,Persona Física,4422141774,4421866401,6- - 6- USADOS 12-24,"40,000.00",24,10/09/18,16/09/20,16.35,"8,311.11","161,976.69",FORD,FUSION,C4A TIT,Usado,2013,ADRIAN CAMARILLO,25,MIGUELJUAREZ_ARROYO@HOTMAIL.COM
16,638663,AFAHR6DA8KP106033,MATERIALES PARA CONSTRUCCION EL JACALITO,,Moral,4482789173,4482789047,(G - (G STD PREF NAF 35%,"162,890.00",24,19/06/19,01/07/21,14.5,"15,027.72","311,459.00",FORD,RANGER,J9B XLT,Nuevo,2019,JUAN CARLOS ALCANTAR,36,JACALITO@PRODIGY.NET.MX
17,97060,AFAHR6CAXKP104589,MINERALES QUERETANOS SA DE CV,,Moral,4421459752,44-2196-3757,)- - )- SUB RAN 19,"170,000.00",12,17/10/19,01/11/20,4.39,"23,547.25","275,968.39",FORD,RANGER,J9D XL,Nuevo,2019,JUAN CARLOS TORRES ,31,MINERALES_QRO@HOTMAIL.COM
18,469435,MAJBP1ZL2JC236999,GARCIA HERNANDEZ,CARLOS DANIEL,Persona Física,4422231086,4776285197,N_ - N_ SUB ECOSPORT 18,"100,000.00",24,09/02/19,16/02/21,0,"12,631.90","303,166.29",FORD,ECOSPORT,W7B TIT,Nuevo,2018,ALFREDO SANCHEZ,29,CARLOSDANIEL1995@HOTMAIL.COM
19,24279,MAJFP1M16KA180389,RODRIGUEZ MATA,CLAUDIA ESTELA,Persona Física,44-2215-1900,44-2173-1250,%S - %S SUB FIG 19,"90,000.00",24,30/08/19,01/09/21,3.92,"5,967.64","135,900.00",FORD,FIGO,X6D ENE,Nuevo,2019,YOVANNY GARCIA ,29,CRODRIGUEZ@WEGOCHEM.COM
20,225141,WF0CP6A78J1C84254,MARTINEZ GONZALEZ,GUMERCINDO,Persona Física,4421774090,4421957250,9* - 9* COM ESCAPE 18,"281,750.00",24,03/09/18,16/09/20,15.35,"6,380.18","125,850.00",FORD,ESCAPE,H3E S P,Nuevo,2018,ALDEMAR DORANTES,26,GMARTINE57@HOTMAIL.COM
21,694873,WF0CP6A71K1D43453,BADILLO LOPEZ,GUILLERMO,Persona Física,42-7272-4118,42-7274-5104,%W - %W SUB ESC 19,"129,450.00",24,30/07/19,01/08/21,0,"13,381.42","321,155.00",FORD,ESCAPE,H3E S P,Nuevo,2019,JESUS OLVERA,35,MEGUILLERMOBL@GMAIL.COM
22,667267,1FM5K7D84KGB30541,OSEJO QUINTANILLA,JOSE GUSTAVO,Persona Física,4423281001,44-2225-3654,/5 - /5 SUB EXP 19,"350,000.00",12,18/07/19,01/08/20,0,"33,863.80","406,365.71",FORD,EXPLORER,E2C XLT,Nuevo,2019,ALDEMAR DORANTES,26,GUSTAVO.OSEJO@HOTMAIL.COM
23,626011,1FDEF3G64FEB27745,RAMIREZ SOTO,GERARDO,Persona Física,44-2222-3750,44-2222-3750,FL - STD OCT 49-60,"72,840.00",60,17/10/14,01/11/19,14.84,"8,210.39","319,629.85",FORD,F-350,XLT 15,Nuevo,2015,RAUL OLVERA,29,TRANSPORTES_YAYO@YAHOO.COM.MX
24,439377,MAJHP1P15KA186107,CORONA VILLAGOMEZ,MARIELA,Persona Física,7721044437,4422254131,P} - P} SUB INDEP FIGO 19,"66,650.00",18,21/01/19,01/08/20,0.81,"11,844.31","211,419.47",FORD,FIGO,X7A TIT,Nuevo,2019,JUAN CARLOS TORRES ,31,MARIELA_COVI@HOTMAIL.COM
25,294623,MAJBP1YS0JC200317,CASTRO VILCHIS,ABEL,Persona Física,4422226145,4423599675,EO - EO SUB INDEP ECO 18,"219,660.00",18,15/10/18,16/04/20,0,"5,813.24","104,639.00",FORD,ECOSPORT,W8D TRE,Nuevo,2018,HUMBERTO LEDESMA,29,ACHERRAMIENTASQRO@PRODIGY.NET.X
26,631972,MAJBS2MS0KC295733,ZEA ROMERO,MA GRACIELA,Persona Física,44-2524-3725,44-7170-5031,/P - /P SUB IND ECO 19,"81,850.00",24,26/07/19,01/08/21,10,"13,100.70","275,933.79",FORD,ECOSPORT,W8D TRE,Nuevo,2019,JESUS OLVERA,35,MAQUINADOS.CASH@HOTMAIL.COM
27,504454,1FDWF3G66HEB72659,AGUILAR BARCENAS,LUIS DANIEL,Persona Física,44-2277-5209,44-2277-5209,F. - TRUCKS C 6-60,"101,060.00",36,05/12/16,16/12/19,13.4,"15,323.49","429,546.82",FORD,F-350,XL MT 1,Nuevo,2017,ADRIAN CAMARILLO,25,TRANSPORTES_TREGUI@HOTMAIL.COM
28,559015,1FDEF3G69GEB90082,CASTILLO PATIÑO,ADRIANA,Persona Física,4272741124,4271421427,3B - TRUCKS 6-60,"86,084.60",48,20/02/16,01/03/20,11.9,"10,030.66","359,890.09",FORD,F-350,XL AC 1,Nuevo,2016,ADRIAN CAMARILLO,25,ACPTRANSPORTE@YAHOO.COM.MX
29,384230,MAJBP1YL4JC226735,CABAÑAS CAMPOS,MARIA DE LOURDES TERESA,Persona Física,4421282516,4422546583,F% - F% COM INDEP ECO 18,"124,500.00",24,13/12/18,16/12/20,3.49,"8,985.50","205,800.00",FORD,ECOSPORT,W8B TRE,Nuevo,2018,SALVADOR JIMENEZ,29,LUMAGIC55@GMAIL.COM
30,395139,WF0CP6B92J1C70298,SALGADO VELAZQUEZ,RAQUEL,Persona Física con actividad Empresarial,4422451421,4424148793,F! - F! SUB ESCAPE 18,"180,000.00",24,17/12/18,16/12/20,9.99,"14,654.16","317,600.00",FORD,ESCAPE,H1J TIT,Nuevo,2018,JOHANA ESTRADA,31,RACHEL.SALGADO01@GMAIL.COM
31,519102,3FADP4EJ5FM107286,AGUILAR VELAZQUEZ,ROGELIO,Persona Física,44-2217-0141,44-2291-2031,FE - SUB JUL 49-60,"66,360.00",60,29/08/14,01/09/19,13.53,"4,170.68","167,953.74",FORD,FIESTA,SE A 5,Nuevo,2015,JUAN JOSE NORIA ,31,ROAGVE@HOTMAIL.COM.MX
32,270966,1FM5K7F84JGB82294,OBRAS CIVILES E HIDRAULICAS SA DE CV,,Moral,,4422451953,G= - G= STD ESPECIAL 40%,330000,36,10/10/18,16/10/21,13.98999977,15025.76953,439700,FORD,EXPLORER,E1B LIM,Nuevo,2018,ADRIAN CAMARILLO,25,SICONTRATA@PRODIGY.NET.MX
33,4071,MAJHP1P12KA191751,LOPEZ MACIAS,ANDREA LILY MARLENE,Persona Física,44-2484-0578,44-2443-3050,%S - %S SUB FIG 19,"130,000.00",24,16/08/19,16/08/21,3.92,"5,467.04","124,500.00",FORD,FIGO,X7A TIT,Nuevo,2019,JAFET GUEVARA,31,MARLENELOPEZMACIAS1@HOTMAIL.COM
34,309220,AFAHR6CA7LP108889,MARTINEZ ROMERO,ANA ROSA,Persona Física,44-2384-1000,44-2242-0370,<! - <! COM RAN 20,"210,700.00",17,14/03/20,16/08/21,13.89,"13,538.69","271,790.62",FORD,RANGER,J9A XLT,Nuevo,2020,SALVADOR JIMENEZ,29,ARMR2509@YAHOO.COM.MX 
35,34145,MAJBS2ML6KC305321,RIBON LAZCANO,MARTHA,Persona Física,44-2218-7496,44-2248-4187,)Q - )Q SUB ECO 19,"200,000.00",12,23/08/19,01/09/20,0,"12,600.00","151,200.00",FORD,ECOSPORT,W8B TRE,Nuevo,2019,MIGUEL ANGEL ZAVALA,31,MRIBON@YAHOO.COM
36,44523,WF0RS5HP9KTA11998,HERRERA FABIAN,JOSE DAVID,Persona Física con actividad Empresarial,44-2630-5057,44-2630-5057,_< - _} COM TRA 19,"200,000.00",24,31/08/19,01/09/21,13.64,"14,980.97","313,127.84",FORD,TRANSIT,N3B LAR,Nuevo,2019,ADRIAN CAMARILLO,25,JDHF.1959@GMAIL.COM
37,488325,WF0CP6B93K1C99200,OLVERA OLVERA,JOSE MARTIN,Persona Física,4423183455,4423183455,Q¿ - Q¿ SUB INDEP ESC19,"300,000.00",12,19/02/19,01/03/20,7.98,"22,349.45","253,848.21",FORD,ESCAPE,H1J TIT,Nuevo,2019,ADRIAN CAMARILLO,25,MARTINOLVERA@LOGIMAR.MX
38,606154,1FM5K8F89GGB76649,CALENTADORES SOLARES BICENTENARIO S DE R,,Moral,4422980783,44-2248-5341,4E - STD 12-60,"215,160.00",48,08/03/16,16/03/20,11.9,"13,826.90","526,042.29",FORD,EXPLORER,LIM 4W,Nuevo,2016,ALFREDO SANCHEZ,31,FACTURACION@SOLARQRO.COM
39,239631,1FTEW1EG9JFD08184,GONZALEZ CORTEZ,DANY ADAN,Persona Física con actividad Empresarial,4421061660,4427368334,7> - 7> SUB LOBO 18,"331,485.00",12,10/09/18,16/09/19,5.07,"58,098.09","678,420.60",FORD,LOBO,G6J PLA,Nuevo,2018,ULISES ARGUELLO,30,DANY.GONZALEZ@EQUIPOLOGISTICO.COM
40,462480,MAJFP1ND5HA146283,GRUPO A00S SAPI DE CV,,Moral,4424020663,4422178867,_9 - _9 SUB FIGO 17,"35,780.00",24,06/12/17,16/12/19,0,"6,691.17","160,585.78",FORD,FIGO,X5C DIM,Nuevo,2017,MIGUEL DE LEON ,32,FACTURACION@GRUPA00S.COM
41,358285,3FADP4BJ5JM141435,MENDOZA MORTERA,OCTAVIO,Persona Física,2949421994,9932791713,G$ - G$ COM FIESTA 18,"101,000.00",24,28/11/18,01/12/20,1,"7,477.09","177,021.76",FORD,FIESTA,F2D SE,Nuevo,2018,CARLOS ROMERO ,31,ARQ.MONTERA@HOTMAIL.COM
42,37477,AFAFR6AA9KP104397,DISTRIBUIDORA DE CARNES OROZCO SA DE CV,,Moral, ,42-7264-0077,:J - :J COM RAN 19,"77,100.00",24,30/08/19,01/09/21,13.41,"15,957.59","334,298.02",FORD,RANGER,J9F XL,Nuevo,2019,JUAN CARLOS ALCANTAR,36,DOROZCO2019964@GMAIL.COM
43,198234,MAJFP1ND2JA178808,RODRIGUEZ OROZCO,MARIA FERNANDA,Persona Física,4427213417,4454575678,3¿ - 3¿ SUB FIGO 18,"73,000.00",24,17/08/18,01/09/20,0,"6,596.02","158,302.87",FORD,FIGO,X6B ENE,Nuevo,2018,ALFREDO SANCHEZ,25,FERNANDAOROZCO.19@GMAIL.COM
44,67643,MAJFP1MD9JA175647,HERNANDEZ HERNANDEZ,SILVIA,Persona Física con actividad Empresarial,41-9292-2035,41-9292-0015,}> - }> SUB FIGO 18 30/0,"74,235.00",36,18/06/18,01/07/21,2.85,"5,046.42","173,928.93",FORD,FIGO,X6D ENE,Nuevo,2018,VICTOR MARTINEZ,25,MUEBLERIAMONTES@HOTMAIL.COM
45,527465,MAJHP1P19KA187129,RAMIREZ CAMPOS,RODRIGO,Persona Física,44273066184,4272643489,S) - S) SUB FIGO 19,"153,600.00",18,26/03/19,01/10/20,0,"5,911.13","106,400.00",FORD,FIGO,X7A TIT,Nuevo,2019,JESUS OLVERA,35,RODRIGO.RAM.CAMPOS@GMAIL.COM
46,370073,1FDWF3G65KEC18988,SERVICIOS LOGISTICOS BETTY SA DE CV,,Moral,4424141194,4482750492,H< - H< STD ESPECIAL 30%,"180,840.00",12,30/11/18,01/12/19,14.99,"38,083.40","421,960.00",FORD,F-350,K6F XL,Nuevo,2019,JUAN CARLOS TORRES ,31,CONTABILIDAD.BETTY@OUTLOOK.COM
47,250149,WF0CP6A75J1C82056,LOZADA TORRES,NELLY,Persona Física,4422511651,4422633587,8¡ - 8¡ SUB ESCAPE 18,"135,000.00",36,25/09/18,01/10/21,13.65,"9,766.17","272,600.00",FORD,ESCAPE,H3E S P,Nuevo,2018,HUMBERTO LEDESMA,25,NELLY.LOZADA@ICLOUD.COM
48,303366,MAJFP1M16KA179968,TORRES CAMACHO,MA. MARTHA,Persona Física,4421298408,4424846807,JX - JX COM FIGO 19,"75,950.00",25,29/10/18,01/12/20,8.74,"7,290.76","156,019.98",FORD,FIGO,X6D ENE,Nuevo,2019,JUAN CARLOS TORRES ,31,MA.MARTHATC@GMAIL.COM
49,222091,1FA6P8CF0K5108196,CASAS VEGA,J RUBEN,Persona Física con actividad Empresarial,4423858475,4422208530,5* - 5* STD 6-60,"134,240.00",12,31/08/18,01/09/19,17.1,"52,101.68","570,963.33",FORD,MUSTANG,MPG V8,Nuevo,2019,HUMBERTO LEDESMA,25,JC.CENARI@GMAIL.COM
50,636855,MAJHP1PD9HA133185,ARIAS AGUILAR,ARTURO GUSTAVO,Persona Física,44-2213-1302,44-2213-6743,98 - 98 SUB 24/0,"66,960.00",36,16/02/17,01/03/20,5.5,"5,256.48","169,945.36",FORD,FIGO,DFTITAN,Nuevo,2017,JOHANA ESTRADA,25,ORUTRA12@PRODIGY.NET
51,366565,MAJHP1P14KA185109,MAILLET .,GERARD HENRI DAVID,Persona Física,4422813383,4422136743,JQ - JQ COM INDEP FIGO 19,"120,000.00",24,04/12/18,16/12/20,8.74,"6,266.46","134,100.00",FORD,FIGO,X7A TIT,Nuevo,2019,JOHANA ESTRADA,25,GERARDELTON49@HOTMAIL.COM
52,381422,MAJFP1XS7JC192090,MEDINA HERNANDEZ,JOSE RAUL,Persona Física,44421818799,4422175138,EO - EO SUB INDEP ECO 18,"115,000.00",24,10/12/18,16/12/20,0,"7,255.55","174,133.43",FORD,ECOSPORT,W9D AMB,Nuevo,2018,ARTURO MENDOZA ,26,MONTESORIQRO@PRODIGY.NET.MX
53,477999,MAJFP1M17KA181468,RODRIGUEZ HERNANDEZ,GUSTAVO,Persona Física,4426814692,4421431495,S) - S) SUB FIGO 19,"120,000.00",18,13/02/19,16/08/20,0,"7,752.60","139,546.29",FORD,FIGO,X6D ENE,Nuevo,2019,ULISES ARGUELLO,30,GUSTAVOROHER18@GMAIL.COM
54,224312,MAJFP1MD1JA171236,ALEJANDRE ARREOLA,FRANCISCO EDIER,Persona Física,44-2670-0102,44-2222-5029,3S - 3S SUB INDEP FIG18,"69,440.00",24,31/08/18,01/09/20,0,"5,519.09","132,460.00",FORD,FIGO,X5D IMP,Nuevo,2018,HUMBERTO CHAGALA,26,"YOYO.ALE,4833@GMAIL.COM"
55,215291,MAJFP1MD2JA177319,CONTROL POTENCIA E INGENIERIA CORAL S DE,,Moral,5553672172,5552809852,3J - 3J COM FIGO 18,"55,620.00",24,31/08/18,01/09/20,0.71,"5,447.75","129,780.00",FORD,FIGO,X5D IMP,Nuevo,2018,ADRIAN CAMARILLO,25,CCOLIN@CORALGROUP.COM.MX
56,260190,MAJBP1YS3JC213000,CASAS CASAS,MARIA JUANA DE DIOS,Persona Física,4422435702,4423310291,8K - 8K COM ECOSPORT 18,"219,660.00",24,27/09/18,01/10/20,6.23,"4,418.46","97,640.00",FORD,ECOSPORT,W8D TRE,Nuevo,2018,EDGAR PLACIDO,6,MARIS_JUANISCASAS@GMAIL.COM
57,557729,3FADP4BJXFM117025,HERNANDEZ GARCIA,ITZEL,Persona Física,4423354679,44-2222-5829,FE - SUB JUL 49-60,"62,500.00",60,05/09/14,16/09/19,12.92,"3,611.02","147,769.85",FORD,FIESTA,SE M 4,Nuevo,2015,ADRIAN CAMARILLO,25,IHERNANDEZG@HOTMAIL.COM
58,220799,WF0RS5HP8JTA73844,SUAREZ GARCIA,MARIA ELENA,Persona Física,7181240336,4423479433,10 - 10 SUB INDEP TRANS18,"94,000.00",12,01/09/18,01/09/19,0,"31,906.13","382,874.00",FORD,TRANSIT,N3A VAN,Nuevo,2018,ALFREDO SANCHEZ,26,DI-TRANS@HOTMAIL.COM
59,156614,1FMJK1KT8KEA32031,MARQUEZ ARTEAGA,J. JESUS,Persona Física con actividad Empresarial,4421968348,4422472058,)) - )) SUB EXD 19,"236,060.00",20,25/11/19,01/08/21,0,"52,457.74","944,240.00",FORD,EXPEDITION,V2Z LIM,Nuevo,2019,SALVADOR JIMENEZ,29,JMANOTARIA4@HOTMAIL.COM
60,342525,MAJBP1YS7JC241043,SEGURA VEGA,MARIA GUADALUPE,Persona Física,4272740478,4271191928,E< - E< SUB ECOSPORT 18,"150,000.00",29,21/11/18,01/05/21,11.18,"4,203.16","180,220.52",FORD,ECOSPORT,W8D TRE,Nuevo,2018,ARMANDO MORFIN,26,ADOLFOSEGURA1956@GMAIL.COM
61,17325,8AFRR5AA5F6277730,SANCHEZ ARGOYTIA,ALFONSO MANUEL,Persona Física,55-5932-6494,55-5932-6494,BA - STD ENE 49-60,"151,000.00",60,12/01/15,16/01/20,14.7,"5,910.73","230,943.47",FORD,RANGER,XLT CC,Nuevo,2015,ALAN REYES,26,PONCHOSTER@GMAIL.COM
62,211070,1FDWF3G69JEC03313,BOCANEGRA NIETO,FERMIN,Persona Física,4423302373,4482785201,4( - 4( STD INDEP 6-60,"429,660.00",24,29/08/18,01/09/20,17.1,"11,072.90","213,884.97",FORD,F-350,K6E XL,Nuevo,2018,JOHANA ESTRADA,26,CANTERALOSCOYOTES@GMAIL.COM
63,479355,1FTEW1EG6JFD77513,CONSUEGRA JUAREZ,EDUARDO,Persona Física,4422416632,4426783413,PH - PH SUB INDEP LOB 18,"550,000.00",12,13/02/19,16/02/20,0.8,"32,248.36","384,831.62",FORD,LOBO,G6J PLA,Nuevo,2018,EDGAR PLACIDO,12,SALONLOTUSQRO@GMAIL.COM 
64,178106,1FTEW1EG3JFD08228,COMBUSTIBLES Y LUBRICANTES EL PORVENIR S,,Moral,4412650603,44-1277-0061,-9 - -9 COM LOBO 18,"415,000.00",24,06/08/18,16/08/20,10.75,"26,433.67","568,582.82",FORD,LOBO,G6J PLA,Nuevo,2018,SALVADOR JIMENEZ,29,COMBUSTIBLE.ELPORBENIR12950@GMAIL.COM
65,3796,1FADP3E24EL434166,QUINTANAR FRANCO,VERONICA,Persona Física,44-2238-6000,44-2243-5695,FQ - SUB NOV 49-60,"82,360.00",60,31/12/14,01/01/20,12.41,"3,020.50","125,300.00",FORD,FOCUS,S MT14,Nuevo,2014,ALAN REYES,26,VEROQF@HOTMAIL.COM
66,271731,MAJFP1MD0JA172894,CAMACHO SOLIS,AGUSTIN ISAAC,Persona Física,4426480608,4424846807,D% - D% COM INDEP FIGO 18,"71,505.00",26,05/10/18,16/12/20,1.32,"6,249.03","147,316.09",FORD,FIGO,X6D ENE,Nuevo,2018,JUAN CARLOS TORRES ,31,ELTIO.CAMACHO@YAHOO.COM.MX
67,678985,WF0CP6B98G1B68660,GOMEZ LUJAN,ANA LAURA,Persona Física,4421247689,4422209895,1T - ESCAPE16 BON 12-60,"134,225.00",48,18/04/16,01/05/20,11.4,"8,569.10","310,923.00",FORD,ESCAPE,TITECO,Nuevo,2016,EDGAR PLACIDO,34,AGOLUJ1990@GMAIL.COM
68,616295,1FM5K8HT6KGA25178,MORENO GRANADOS,BLANCA ESTELA,Persona Física,44-2246-0523,44-2246-0523,!$ - !$ SUB INDEP 12/0,"342,000.00",12,14/06/19,16/06/20,0.84,"56,191.73","670,359.87",FORD,EXPLORER,E6S PLA,Nuevo,2019,HERNAN DORANTES,26,HYMTRANSPORTO@HOTMAIL.COM
69,635435,MAJFP1M15KA185471,MARTINEZ BARRON,AMALIA,Persona Física,4271492996,4272640020,]0 - ]0 SUB FIGO 19,"40,080.00",18,11/06/19,16/12/20,0,"9,128.87","164,320.00",FORD,FIGO,X5D IMP,Nuevo,2019,ALDEMAR DORANTES,26,RAULBARRON_157@HOTMAIL.COM
70,372903,MAJBP1YS6JC246573,FAJARDO HIGUERA,ELIA OLIVIA,Persona Física,4422455296,4423432597,EO - EO SUB INDEP ECO 18,"105,000.00",24,18/12/18,01/01/21,0,"9,349.35","224,382.79",FORD,ECOSPORT,W8D TRE,Nuevo,2018,HUMBERTO LEDESMA,26,INTEGRA.ELIA@GMAIL.COM
71,60101,2FMPK3AP1JBB69560,APG QUIMICA S.A.C.V.,,Moral,4422187068,4422216466,T: - T: SUB EDGE 18,"310,000.00",18,30/05/18,01/12/19,0,"24,422.26","439,600.00",FORD,EDGE,D6S SPO,Nuevo,2018,JUAN CARLOS TORRES ,31,APGQUIMICA@PRODIGY.NET.MX
72,73788,MAJFP1ND4HA138739,REYES GOMEZ,JAIME DEL CARMEN,Persona Física,5539250082,5558611954,!G - !G COM INDEP FIG17,"53,000.00",38,13/06/18,16/08/21,4.89,"5,286.47","172,906.59",FORD,FIGO,X6A DEN,Nuevo,2017,HUMBERTO LEDESMA,26,GRUPO_INTELRED2000@HOTMAIL.COM
73,578857,WF0RS5HP3KTA88947,CALDERON DORANTES,HECTOR,Persona Física con actividad Empresarial,4641375736,4646471721,XB - XB SUBNAF TRANS19 18,"100,220.00",18,06/05/19,16/11/20,0,"24,016.89","432,303.51",FORD,TRANSIT,N3A LAR,Nuevo,2019,ALDEMAR DORANTES,26,WELDORGERENCIA@HOTMAIL.COM
74,234208,MAJFP1ND0JA174062,GONZALEZ GUTIERREZ,MA. GUADALUPE,Persona Física,4421111298,4422221170,3{ - 3{ COM FIGO 18,"100,000.00",24,06/09/18,16/09/20,0.71,"4,556.39","108,300.00",FORD,FIGO,X6B ENE,Nuevo,2018,JUAN CARLOS TORRES ,31,GUGO_2108@HOTMAIL.COM
75,405569,1FTEW1EG2JFD29233,MEJIA TREJO,LUIS RUBEN,Persona Física,4424550970,4421104483,G- - G- SUB INDEP LOB 18,"310,485.00",12,27/12/18,01/01/20,0,"52,464.94","629,578.62",FORD,LOBO,G6J PLA,Nuevo,2018,HUMBERTO LEDESMA,26,LRUBENMT@GMAIL.COM
76,363952,MAJBP1YS1JC241054,ESPINO JUSUE,MA. OLIVIA DOLORES,Persona Física,4426907182,4424357875,E< - E< SUB ECOSPORT 18,"78,450.00",24,26/11/18,01/12/20,0,"10,751.38","258,032.20",FORD,ECOSPORT,W8D TRE,Nuevo,2018,JUAN CARLOS TORRES ,31,PANDILLA_423@GMAIL.COM
77,376261,MAJBP1YL4JC241221,ALCAZAR OSEGUERA,ANGELITA,Persona Física,4422220410,4421797109,N_ - N_ SUB ECOSPORT 18,"157,000.00",24,23/01/19,01/02/21,0,"8,636.44","207,273.87",FORD,ECOSPORT,W8B TRE,Nuevo,2018,ADRIAN CAMARILLO,25,
78,649732,1FDEF3G65FEB38107,RODRIGUEZ RICO,ANGEL,Persona Física con actividad Empresarial,44-2228-9562,44-2228-9562,FL - STD OCT 49-60,"71,140.00",60,04/11/14,16/11/19,14.81,"7,399.38","312,371.56",FORD,F-350,XL MT 1,Nuevo,2015,RAUL OLVERA,26,PROINSAQRO@PRODIGY.NET.MX
79,373627,MAJBP1YLXJC212953,BECERRIL VICTORIA,ROSA MARIA,Persona Física,7181240843,7121309649,EO - EO SUB INDEP ECO 18,"170,400.00",24,04/12/18,16/12/20,0,"7,245.91","173,900.00",FORD,ECOSPORT,W8B TRE,Nuevo,2018,JESUS OLVERA,35,BECERRIL07@HOTMAIL.COM
80,539560,3FADP4BJ5JM116244,DIAZ MARTINEZ,JORGE ALBERTO,Persona Física,4428020939,3324978031,T* - T* SUB FIESTA 18,"100,000.00",24,01/04/19,01/04/21,0,"7,810.44","187,448.03",FORD,FIESTA,F2D SE,Nuevo,2018,ANDREA VALDIVIA,28,JORGEADIAZ.MTZ@GMAIL.COM
81,645106,MAJFP1M19KA185473,TREJO MANCILLA,ALICIA,Persona Física,4422137767,4424937974,]0 - ]0 SUB FIGO 19,"44,180.00",18,19/06/19,01/01/21,0,"10,012.26","180,220.00",FORD,FIGO,X5D IMP,Nuevo,2019,ADRIAN CAMARILLO,25,ATREJO@USEBEQ.EDU.MX
82,424358,WF0CP6A7XJ1C81842,ARELLANO ROMERO,MARIA DOROTEA,Persona Física,4424481152,4422283301,RT - RT SUB ESCAPE 18,"180,000.00",27,26/01/19,01/05/21,11.84,"6,859.40","197,600.00",FORD,ESCAPE,H3F S 2,Nuevo,2018,ARACELI ALDANA,28,ARELLANO.DOROTEA@GMAIL.COM
83,695490,3FAFP4AJ2FM137649,MIRANDA AGUIRRE,RUBEN,Persona Física,44-2480-8672,44-2480-8672,FQ - SUB NOV 49-60,"55,000.00",60,16/12/14,16/12/19,12.58,"2,903.26","119,900.00",FORD,FIESTA,S MT 4,Nuevo,2015,JOSE LUIS RUIZ,28,DOBLEFLOR@HOTMAIL.COM
84,457696,WF0WS4NT0JTB55338,LEDESMA CAMACHO,J ALBERTO,Persona Física con actividad Empresarial,4422284580,4424116896,Q{ - Q{ STD 6-60,"383,900.00",6,07/03/19,16/09/19,17.65,"67,317.21","383,900.00",FORD,TRANSIT,M4B BUS,Nuevo,2018,ADRIAN CAMARILLO,25,LEDS584@GMAIL.COM
85,327104,MAJHP1P13KA181410,SANCHEZ TREJO,JOSE ANTONIO,Persona Física,4422233124,4422262393,JU - JU SUB FIGO 19,"127,000.00",12,13/11/18,16/11/19,0,"12,252.26","147,027.56",FORD,FIGO,X7A TIT,Nuevo,2019,ADRIAN CAMARILLO,25,JUANSANTRE@MSN.COM
86,266326,MAJFP1MD8JA173775,FREITES ASENCION,EFRAIN UBALDO,Persona Física,4421968366,5563306264,3¿ - 3¿ SUB FIGO 18,"55,000.00",36,01/10/18,01/10/21,5.27,"5,614.34","182,310.19",FORD,FIGO,X6D ENE,Nuevo,2018,HUMBERTO LEDESMA,28,EFRAIN.FREITES@GMAIL.COM
87,154717,1FM5K7F89HGC97757,ISUNZA DOMINGUEZ,OLGA LETICIA,Persona Física con actividad Empresarial,4421864097,4424039055,3* - 3* COM EXPLORER 17,"200,000.00",36,25/07/18,01/08/21,11.73,"18,510.43","559,432.40",FORD,EXPLORER,E1B LIM,Nuevo,2017,ADRIAN CAMARILLO,25,ESQUELETITO75@HOTMAIL.COM
88,222837,MAJFP1MD7JA174786,MENDIZABAL PANIAGUA,LUIS FERNANDO,Persona Física,4142734597,4142802096,A¡ - A¡ SUB INDE FIG 30/0,"41,153.00",30,31/08/18,01/03/21,0,"6,530.67","195,923.87",FORD,FIGO,X5D IMP,Nuevo,2018,LUIS ANGEL ARMENTA ,28,CANTERIA@YAHOO.COM
89,56168,WF0RS5HP1KTA05399,SELLASILICONES SA DE CV,,Moral,5524553590,5524553591,_} - _} SUB TRA 19,"220,000.00",24,12/09/19,16/09/21,7.66,"12,349.71","274,000.00",FORD,TRANSIT,N3B LAR,Nuevo,2019,ADRIAN CAMARILLO,25,PATRICIA.BARBA@SELLASILICONES.COM
90,226469,1FTEW1C55JKE99546,NAVES INDUSTRIALES MORLET SA DE CV,,Moral,4422542697,4422542696,A: - A: STD ESPECIAL,"360,000.00",12,31/08/18,01/09/19,14.4,"26,623.64","295,899.00",FORD,F-150,J8B XLC,Nuevo,2018,ULISES ARGUELLO,30,ENRIQUE@MORLET.COM.MX
91,2219,MAJBS2ML5KC305231,EXEL SOLAR SAPI DE CV,,Moral,9999260219,5554340464,}K - }K SUB ECO 19,"119,310.00",24,31/07/19,01/08/21,7.66,"11,507.05","255,304.13",FORD,ECOSPORT,W8B TRE,Nuevo,2019,MARICELA GUILLEN ,31,CLAUDIA.LORENZO@EXELSOLAR.COM
92,356064,WF0CP6A99J1C93840,DIAZ BARREIRO VASAVILBASO,GERMAN,Persona Física,4422456270,5538675251,KL - KL COMB INDEP ESC 18,"288,750.00",24,26/11/18,01/12/20,14.05,"6,430.72","128,850.00",FORD,ESCAPE,H2Y TRE,Nuevo,2018,CLARIBEL,28,GDIAZBARREIRO@ICLOUD.COM
93,633904,WF0CP6B99K1C98309,PEÑA PANIAGUA,MA. CONSUELO,Persona Física,44-2217-0622,44-2217-9440,^F - ^F SUB IND ESC 19,"200,000.00",18,08/06/19,16/12/20,0.86,"21,120.48","376,831.69",FORD,ESCAPE,H1J TIT,Nuevo,2019,JUAN CARLOS TORRES ,31,GESTIONESCOLAR.LAFAYETTE@HOTMAIL.COM
94,620359,WF0BP4H22E4111812,ZARIÑANA MARTINEZ,RAUL ANDONI SERGEI,Persona Física,44-1276-0157,44-2713-2017,FO - SUB OCT 49-60,"52,640.00",60,18/10/14,01/11/19,12,"4,604.85","193,114.99",FORD,FOCUS,AMB AT,Nuevo,2014,JUAN JOSE NORIA ,34,ANDONI.ZAR@HOTMAIL.IT
95,385296,MAJFP1MDXGA122433,GARCIA HERNANDEZ,JUAN MANUEL,Persona Física,3317148271,44-2278-3740,P. - FIGO BON 12-60,"17,455.00",48,20/10/16,01/11/20,9.95,"4,286.30","160,745.00",FORD,FIGO,DFIM MA,Nuevo,2016,EDGAR PLACIDO,25,JUAN_GARCIAH@O-I.COM
96,452165,MAJBP1YS3JC236986,HUERTA HERNANDEZ,FERNANDO,Persona Física con actividad Empresarial,4427131007,4422815616,N_ - N_ SUB ECOSPORT 18,"196,500.00",24,31/01/19,16/02/21,0,"4,887.50","117,300.00",FORD,ECOSPORT,W8D TRE,Nuevo,2018,ARACELI ALDANA,34,FERNANDO_CARDIO@HOTMAIL.COM
97,473592,WF0CP6B7XH1C11394,MENESES SALDANA,JENNYFER YAZMIN,Persona Física con actividad Empresarial,44-3334-1454,44-3316-0174,B@ - B@ SUB ESCAPE 17,"92,680.00",24,08/12/17,16/12/19,0,"15,659.09","375,820.00",FORD,ESCAPE,H1H TIT,Nuevo,2017,ALDEMAR DORANTES,26,MAYORISTASDEBANOS@OUTLOOK.COM
98,111204,MAJHP1PD5JA159482,ORTEGA RODRIGUEZ,MARIA ELIDA,Persona Física,4426004819,4427365552,{K - {K COM FIGO 18,"28,000.00",36,02/07/18,01/07/21,10.77,"6,234.64","229,468.00",FORD,FIGO,X7A TIT,Nuevo,2018,ALFREDO SANCHEZ,34,OERE6Z1@HOTMAIL.COM
99,281326,MAJFP1ND4HA151524,RUEDAS HERNANDEZ,HECTOR,Persona Física con actividad Empresarial,4274888619,4272728818,@Z - @Z SUB FIGO 17,"21,350.00",24,28/08/17,01/09/19,0,"8,006.25","192,150.00",FORD,FIGO,DENEAT5,Nuevo,2017,ADRIAN CAMARILLO,25,
100,614469,MAJFP1M19KA179642,RODRIGUEZ NAVA,CARLOS ALBERTO,Persona Física,7222416531,,]0 - ]0 SUB FIGO 19,"100,000.00",24,25/05/19,01/06/21,3.92,"4,584.42","104,400.00",FORD,FIGO,X5D IMP,Nuevo,2019,JOSE GUADALUPE OLGUIN ,34,CRNAVA28@GMAIL.COM
101,197408,MAJFP1MD0JA177030,LEON ACUÑA,NORA ELIA,Persona Física,4426294904,4426294904,3J - 3J COM FIGO 18,"49,600.00",24,20/08/18,01/09/20,0.71,"6,992.35","166,200.00",FORD,FIGO,X6D ENE,Nuevo,2018,HERNAN DORANTES,34,LEON_QRO@HOTMAIL.COM
102,188290,MAJFP1MD3JA175644,ADMINISTRACIÓN MEDICA INDUSTRIAL SA DE C,,Moral,4421311451,4425437370,A{ - A{ SUB FIGO 18 30/0,"42,460.00",30,15/08/18,16/02/21,0,"6,775.75","203,268.44",FORD,FIGO,X6D ENE,Nuevo,2018,ULISES ARGUELLO,30,ASISTENTEDIRECCION@MEDICAINDUSTRIAL.COM
103,24420,3FADP4BJ2FM153629,PARAMO CHAVEZ,GISELA,Persona Física,4422126017,4424251518,BC - SUB ENE 12-48,"43,220.00",36,15/01/15,16/01/18,11.34,"6,273.21","182,298.39",FORD,FIESTA,SE A 4,Nuevo,2015,RAUL OLVERA,34,MADEIR_QRO@HOTMAIL.COM
104,70559,MAJFP1ND6JA170811,HIDALGO MEDINA,MARIO,Persona Física,4422229888,4423473334,{O - {O SUB INDEP FIG18,"72,835.00",24,07/06/18,16/06/20,0,"6,246.77","149,920.41",FORD,FIGO,X6B ENE,Nuevo,2018,ADRIAN COLIN ,35,HIDMEDMARIO@HOTMAIL.COM
105,609406,WF0CP6A97K1C97595,GARCIA .,JOSE LUIS,Persona Física,44-7100-7111,44-7478-4276,]4 - ]4 SUB INDEP 12/0,"241,550.00",12,24/05/19,01/06/20,0.84,"22,766.26","271,598.40",FORD,ESCAPE,H2Y TRE,Nuevo,2019,ULISES ARGUELLO,30,CFDI_CONTA@OUTLOOK.COM
106,77519,WF0DP3TH1H4123615,SOTELO ALVAREZ,EFREN,Persona Física,5556713933,5584938891,<{ - <{ SUB FOCUS RS 17,"213,000.00",36,08/06/18,16/06/21,0,"16,137.56","580,948.31",FORD,FOCUS,ZRS RS,Nuevo,2017,HUMBERTO LEDESMA,35,EFRENSO36@GMAIL.COM
107,575207,AFAHR6CA9KP101425,ZUÑIGA OLVERA,JOSE ANTONIO,Persona Física con actividad Empresarial,4422250837,4421497432,(2 - (2 SUB NAF RANGER 19,"180,000.00",24,29/04/19,01/05/21,9.99,"10,402.30","225,449.40",FORD,RANGER,J9D XL,Nuevo,2019,MIGUEL ANGEL SANTIAGO,35,JAZO_15@HOTMAIL.COM
108,22684,MAJFP1MD3HA153153,MONTES ESCUTIA,MARCOS,Persona Física con actividad Empresarial,44-2384-5026,44-2384-5026,]D - ]D COM FIGO 17,"40,900.00",30,05/05/18,16/11/20,2.05,"6,872.29","200,797.29",FORD,FIGO,X5B DIM,Nuevo,2017,ALDEMAR DORANTES,26,M.MONTES@MILPILLASMEAT.COM
109,206901,1FTEW1EG0JFD08185,Q PUMPS SA DE CV,,Moral,4422187172,4422262620,-9 - -9 COM LOBO 18,"189,420.00",24,22/08/18,01/09/20,10.75,"35,224.89","757,680.00",FORD,LOBO,G6J PLA,Nuevo,2018,ADRIAN CAMARILLO,25,ALEX@QPUMPS.COM
110,699778,WF0CP6B91K1D13532,JIDSA SA DE CV,,Moral, ,42-7101-1023,%W - %W SUB ESC 19,"150,000.00",24,02/08/19,16/08/21,0,"17,262.24","414,296.06",FORD,ESCAPE,H1J TIT,Nuevo,2019,DIEGO ZAMORA ,34,JJIDSA@HOTMAIL.COM
111,636389,MAJBS2ML3KC287764,HERNANDEZ MARISCAL,CARLOS AUGUSTO,Persona Física,44-2234-0874,44-2234-0874,!$ - !$ SUB INDEP 12/0,"205,000.00",24,20/06/19,01/07/21,8.49,"6,647.83","142,700.00",FORD,ECOSPORT,W8B TRE,Nuevo,2019,LEOPOLDO MORA,35,HERBACL@YAHOO.COM.MX
112,8023,MAJUP3SFXEC136096,ALMARAZ MANRIQUE,ESMERALDA,Persona Física,44-2238-6000,44-1276-1355,FQ - SUB NOV 49-60,"108,000.00",60,31/12/14,01/01/20,13.21,"3,742.32","151,980.92",FORD,ECOSPORT,TR R16,Nuevo,2014,LESLIE HERNANDEZ ,35,PEQUESITO76@GMAIL.COM
113,210198,MAJFP1MD5JA172891,MOY RUIZ,LUIS ALEJANDRO,Persona Física,5578583129,4422949145,3J - 3J COM FIGO 18,"55,000.00",36,24/08/18,01/09/21,5.98,"5,018.51","160,800.00",FORD,FIGO,X6D ENE,Nuevo,2018,SALVADOR JIMENEZ,29,MOYLU01@CA.COM
114,559348,MAJBS2NL9KC250815,CORONA ZAMUDIO,ROSA ELISA,Persona Física,4426746773,4423295051,!% - !% SUB 12/0 19,"264,390.00",24,12/06/19,16/06/21,7.66,"5,384.14","116,810.00",FORD,ECOSPORT,W7B TIT,Nuevo,2019,ADRIAN CAMARILLO,25,LISSYCORONA@YAHOO.COM.MX
115,66162,WF0CP6B97J1C75481,PEREZ BRAVO,MARIA ELVIA,Persona Física,5555777668,,F: - F: COM ESCAPE 18,"250,000.00",24,01/06/18,01/06/20,14.94,"10,982.47","217,700.00",FORD,ESCAPE,H1J TIT,Nuevo,2018,ARACELI ALDANA,35,MARIAELVIAP@YAHOO.COM.MX
116,571451,3FADP4EJ2EM215220,ZETINA REYES,MONICA JULIETA,Persona Física,44-2343-2977,44-2278-2332,FJ - SUB SEP 49-60,"39,980.00",60,11/09/14,16/09/19,11.97,"4,098.14","172,029.38",FORD,FIESTA,SE M 5,Nuevo,2014,ALAN REYES,36,JULIET.ZETINA@GMAIL.COM
117,48827,MAJFP1M1XKA188009,JUAREZ LIMA,ARTURO,Persona Física,44-2238-5000,44-2195-5274,%S - %S SUB FIG 19,"45,180.00",24,05/09/19,16/09/21,3.92,"9,085.25","206,896.84",FORD,FIGO,X6D ENE,Nuevo,2019,MIGUEL GUZMAN ,36,R2_JUAREZ@HOTMAIL.COM
118,396494,WF0CP6B71H1C22364,SALDAÑA SANCHEZ,JESUS,Persona Física,4424106576,4422210217,MQ - MQ COM ESCAPE 17,"90,680.00",24,06/11/17,16/11/19,1.11,"15,983.10","377,882.86",FORD,ESCAPE,TIT TC,Nuevo,2017,JUAN CARLOS TORRES ,31,CI.SALGRA@OUTLOOK.COM
119,16237,MAJHP1P18KA191690,MORALES MALAGON,JOSE CRUZ,Persona Física con actividad Empresarial,4422240312,4423229729,%S - %S SUB FIG 19,"51,900.00",18,14/08/19,16/02/21,0,"12,982.53","233,684.18",FORD,FIGO,X7A TIT,Nuevo,2019,JUAN CARLOS TORRES ,31,JCRUZMM_7@HOTMAIL.COM
120,112250,MAJFP1MD7JA172889,JIMENEZ ESTUPINAN,ABEL,Persona Física,4424324604,4422783501,{K - {K COM FIGO 18,"41,420.00",24,02/07/18,01/07/20,2.01,"7,715.37","180,214.77",FORD,FIGO,X6D ENE,Nuevo,2018,SALVADOR JIMENEZ,29,ABELJE317@GMAIL.COM
121,676025,MAJUP3SF6EC125113,GARCIA CASTILLO,LESDY AMIDY,Persona Física,44-2294-2000,44-2484-0513,FQ - SUB NOV 49-60,"92,500.00",60,26/12/14,01/01/20,13.45,"4,459.43","180,001.64",FORD,ECOSPORT,TREND 1,Nuevo,2014,SALVADOR JIMENEZ,29,LESDYGARCIA1217@GMAIL.COM
122,306264,MAJFP1M14LA197662,LAGUNES FRAGA,LUIS ENRIQUE,Persona Física con actividad Empresarial,44-2112-9178,44-2215-1128,-} - -} SUB FIG 20,"47,580.00",14,13/03/20,16/05/21,0,"17,221.28","206,655.91",FORD,FIGO,X6D ENE,Nuevo,2020,EDGAR PLACIDO,30,LELF25@YAHOO.COM.MX
123,273770,WF0RS5GP8KTB83103,RODRIGUEZ MENDOZA,JAVIER,Persona Física con actividad Empresarial,44-2381-8058,44-2193-5014,{D - {D SUB TRA 19,"150,000.00",19,19/02/20,01/10/21,0,"18,255.48","328,600.00",FORD,TRANSIT,N1A COR,Nuevo,2019,EDGAR PLACIDO,21,JAVHDS@HOTMAIL.COM 
124,451539,MAJFP1MD8JA167605,VALDES TELLEZ,FELIPE DE JESUS,Persona Física con actividad Empresarial,4422233882,4423432592,Z! - Z! COMNAF FIGO1830/0,"38,000.00",30,29/01/19,01/08/21,2.51,"7,069.66","205,372.42",FORD,FIGO,X6D ENE,Nuevo,2018,ALDEMAR DORANTES,26,FELIPEVALDES_74@HOTMAIL.COM
125,38068,1FM5K8GT0KGB30655,GONZALEZ DE LA VEGA,LEON SERGIO,Persona Física con actividad Empresarial,42-7272-1849,42-7272-1849,/5 - /5 SUB EXP 19,"320,000.00",12,05/09/19,16/09/20,0,"50,075.97","600,911.42",FORD,EXPLORER,E5S SPO,Nuevo,2019,JESUS OLVERA,35,LEONSGV@PRODIGY.NET.MX
126,567581,MAJFP1N12KA185197,GASTON GARCIA REBOLLO,FRANCISCO JAVIER,Persona Física,5534667260,4426733718,]0 - ]0 SUB FIGO 19,"152,000.00",18,08/05/19,16/11/20,0,"5,631.58","101,369.29",FORD,FIGO,X6B ENE,Nuevo,2019,JAFET GUEVARA,36,FRANCISCO.J.GASTON@GMAIL.COM
127,620593,1FT7W2BT1KEE95346,AGROBASTAN S DE P R DE RL,,Moral, ,46-8688-4986,Z= - Z= STD PREF 35%,"400,000.00",18,31/05/19,01/12/20,14.5,"39,760.64","639,755.66",FORD,F-250,K2A XLT,Nuevo,2019,HUMBERTO LEDESMA,36,ADMINISTRACION@AGROBASTAN.COM
128,163608,MAJHP1PD7JA167339,LEAL VARELA,DELIA MINERVA,Persona Física con actividad Empresarial,4421856766,4422127702,3J - 3J COM FIGO 18,"47,080.00",30,31/07/18,01/02/21,3.86,"6,717.91","191,820.00",FORD,FIGO,X7A TIT,Nuevo,2018,ADRIAN CAMARILLO,25,MINERVAMARMOLMUNDO@OUTLOOK.COM
129,605960,MAJFP1M14KA179872,RODRIGUEZ NAVA,CARLOS ALBERTO,Persona Física,7222416531,,]0 - ]0 SUB FIGO 19,"100,000.00",24,25/05/19,01/06/21,3.92,"4,584.42","104,400.00",FORD,FIGO,X5D IMP,Nuevo,2019,JOSE GUADALUPE OLGUIN ,36,CRNAVA28@GMAIL.COM
130,605724,MAJBP1YS3JC167247,GARCIA RODRIGUEZ,ELIZABETH,Persona Física,44-2211-1000,44-2673-4468,",_ - ,_ SUB ECOSPORT 18","180,000.00",18,20/02/18,01/09/19,0,"7,655.07","137,792.62",FORD,ECOSPORT,W8D TRE,Nuevo,2018,MIGUEL EDUARDO LEON ,23,ELY_GARCIA_007@HOTMAIL.COM
131,55784,MAJFP1MD4JA170260,GARCIA PELAYO,ARIADNA IXEL,Persona Física,4422583999,4422135823,*X - *X COM FIGO 18,"63,630.00",24,29/05/18,01/06/20,2.01,"6,506.15","151,970.00",FORD,FIGO,X6D ENE,Nuevo,2018,JUAN CARLOS TORRES ,31,ARIADNAIXEL@GMAIL.COM
132,465022,MAJFP1MD8JA176305,CERVANTES DIAZ,ESTELA,Persona Física,4272192069,4272723215,S( - S( SUB FIGO 18 30/0,"80,000.00",30,11/02/19,16/08/21,0,"4,260.00","127,800.00",FORD,FIGO,X6D ENE,Nuevo,2018,JOSE GUADALUPE OLGUIN ,36,CERESAZ@HOTMAIL.COM
133,469237,MAJFP1MD6GA122932,MARQUEZ VELAZQUEZ,HULIBERTO,Persona Física,44-2249-9758,44-2690-4177,5I - SUB 12-60 24/0,"50,000.00",50,22/11/16,01/02/21,7.64,"3,472.34","137,431.44",FORD,FIGO,DFIM MA,Nuevo,2016,ALDEMAR DORANTES,26,HULIBERTOMARQUEZ@YAHOO.COM
134,147126,1FM5K8GT3KGB50396,REBOLLAR FRUTIS,RUPERTO ABEL,Persona Física con actividad Empresarial,4272660777,4271049060,:} - :} SUB EXP 19 S,"400,000.00",18,26/11/19,01/06/21,0,"26,791.67","482,249.38",FORD,EXPLORER,E5S SPO,Nuevo,2019,DIEGO ZAMORA ,34,TRANSP_REBOLLAR5@HOTMAIL.COM
135,574891,MAJFP1M19KA179219,RUIZ PEREZ,MARTIN,Persona Física,42-7272-5237,42-7272-5237,<H - <H SUB INDEP FIGO 19,"56,400.00",18,07/05/19,16/11/20,0.86,"9,493.12","169,376.45",FORD,FIGO,X5D IMP,Nuevo,2019,DIEGO ZAMORA ,34,MARTINRUIZP29@HOTMAIL.COM
136,380172,1FTEW1EG5JFE26443,IBARRA RANGEL,CIRILO,Persona Física,4422264477,4423407236,G- - G- SUB INDEP LOB 18,"645,470.00",12,06/12/18,16/12/19,0,"23,652.50","283,830.00",FORD,LOBO,G6J PLA,Nuevo,2018,ADRIAN CAMARILLO,25,CIBARRAS1@HOTMAIL.COM
137,622086,1FTMF1CB8JFC74063,CHAVEZ CHAVERO,PATRICIO,Persona Física con actividad Empresarial,4412960852,4411009210,(G - (G STD PREF NAF 35%,"300,000.00",12,31/05/19,01/06/20,14.5,"18,772.64","208,532.66",FORD,F-150,J6F XLR,Nuevo,2018,ADRIAN CAMARILLO,25,ABARROTERA-CHAVEZ@HOTMAIL.COM
138,624687,MAJHP1P11KA191210,ZUÑIGA HERNANDEZ,JENNY GUADALUPE,Persona Física,4422533264,4424711305,]0 - ]0 SUB FIGO 19,"150,000.00",18,11/06/19,16/12/20,0,"7,828.08","140,906.29",FORD,FIGO,X7A TIT,Nuevo,2019,ADRIAN CAMARILLO,25,RICHICHI-BEBE@HOTMAIL.COM
139,215192,MAJFP1MD1JA178073,ADMINISTRACION LOGISTICA INDUSTRIAL REMA,,Moral,4424551220,4424768949,3¿ - 3¿ SUB FIGO 18,"106,150.00",24,31/08/18,01/09/20,0,"4,890.06","117,361.21",FORD,FIGO,X6D ENE,Nuevo,2018,ALDEMAR DORANTES,26,FREA@DISTRIBUCIONREMA.COM
140,288941,MAJBP1YS9JC221991,TORRES OLVERA,EDGAR BENJAMIN,Persona Física,4424043079,4424140351,E< - E< SUB ECOSPORT 18,"62,760.00",25,12/10/18,16/11/20,0,"10,897.42","261,539.00",FORD,ECOSPORT,W8D TRE,Nuevo,2018,ALFREDO SANCHEZ,37,EDGARBENJAMINT@HOTMAIL.COM
141,84739,MAJBS2ML5KC300210,GONZALEZ GUTIERREZ,LINDA VICTORIA,Persona Física,4427138556,4423796532,)Q - )Q SUB ECO 19,"173,850.00",18,05/10/19,16/04/21,0,"9,852.74","177,350.00",FORD,ECOSPORT,W8B TRE,Nuevo,2019,JUAN CARLOS TORRES ,31,LINDA.VICTORIA.GONZALEZ@GMAIL.COM
142,316035,1FMCU0J93LUA03658,TELLEZ MARIN,DIEGO JEOVANNI,Persona Física,44235448095,4422502637,<S - <S INDEPENDIENTE,"350,000.00",18,23/03/20,01/10/21,19.79,"21,125.77","313,900.00",FORD,ESCAPE,H5T TIT,Nuevo,2020,ADRIAN CAMARILLO,25,JEOVANNI_1180@HOTMAIL.COM
143,593062,1FTEW1EG0JKE99887,LOPEZ REYES,RODOLFO,Persona Física con actividad Empresarial,9343481308,9343435204,PT - PT SUB LOBO 18,"300,000.00",12,25/05/19,01/06/20,0,"48,341.61","580,099.21",FORD,LOBO,G4J LAR,Nuevo,2018,ALFREDO SANCHEZ,37,RUFOLOPEZR@HOTMAIL.COM