1,Diego armando ,Silva,Facio,3121166811,diegosilva1234,diegosilva@gmail.com,12345678,1,XXXXXXX1,true,,,,,false,,,,10
2,Gregorio ,Jalomo,Apellido materno,3121166812,gregorio1234,gregorio_jalomo@gmail.com,12345678,1,XXXXXXX2,true,,,,,false,,,,10
3,Martin ,Reyes,,3122439797,elreyes,lmartinreyes@gmail.com,12345678,1,XXXXXXX3,true,,,,,false,,,,1
4,Dms ,Ford,,3121166813,admin2020,dmssohex@gmail.com,gL7fePmAf1,1,XXXXXXX4,true,,,,,false,,,,1
5,Horacio ,dmsford,,3121113335,adminhoracio,dmshoracio@gmail.com,gL7fePmAf1,1,XXXXXXX5,true,,,,,false,,,,10
6,Asesor prospectos 1,,,3123094368,prospectos1,prospectos1@gmail.com,12345678,1,XXXXXXX6,true,,,,,false,,,,11
7,Asesor prospectos 2,,,3123094369,prospectos2,prospectos2@gmail.com,12345678,1,XXXXXXX7,true,,,,,false,,,,11
8,Asesor prospectos 3,,,3123094366,prospectos3,prospectos3@gmail.com,12345678,1,XXXXXXX8,true,,,,,false,,,,11
9,Asesor telemarketing 1 ,,,3123094365,telemarketing1,telemarketing1@gmail.com,12345678,1,XXXXXXX9,true,,,,,false,,,,12
10,Asesor telemarketing 2 ,,,3123094361,telemarketing2,telemarketing2@gmail.com,12345678,1,XXXXXXX10,true,,,,,false,,,,12
11,Asesor telemarketing 3 ,,,3123094362,telemarketing3,telemarketing3@gmail.com,12345678,1,XXXXXXX11,true,,,,,false,,,,12
12,Asesor ventas 1 ,,,3123094340,ventas1,ventas1@gmail.com,12345678,1,XXXXXXX12,true,,,,,false,,,,13
13,Gestor UNO,Cobranza,,3122439798,gestor1,gestor@gmail.com,12345678,1,XXXXXXX13,true,,,,,false,,,,5
14,Gestor DOS,Cobranza,,3121166870,gestor2,gestor2@gmail.com,12345678,1,XXXXXXX14,true,,,,,false,,,,5
15,Asesor ventas 2 ,,,3123094348,ventas2,ventas2@gmail.com,12345678,1,XXXXXXX15,true,,,,,false,,,,13
16,Asesor ventas 3 ,,,3123094338,ventas3,ventas3@gmail.com,12345678,1,XXXXXXX16,true,,,,,false,,,,13
17,Administrativo,,,3122439710,administrativo1,administrativo@gmail.com,12345678,1,XXXXXXX18,true,,,,,false,,,,4
18,Diana,martinez ,martinez ,4271659709,diana,diana.m.m.psicologa@outlook.com,dianam21,1,XXXXXXX19,true,,,,,false,,,,4
19,Diana Laura,Valladares ,Tovar ,4271516217,diana,d.valladares@fordmylsaqueretaro.mx,diana,1,XXXXXXX20,true,,,,,false,,,,1
20,Maria Magdalena,Dionisio,Martinez,4271186423,maria,m.dionisio@fordmylsaqueretaro.mx,maria01,1,XXXXXXX21,true,,,,,false,,,,1
21,Cardoso,dms_sanjuan,dms_sanjuan ,33333333,usuariocardoso,correo@correo.mx,diana,1,XXXXXXX22,true,,,,,false,,,,1
22,CRISTINA,AVILA,GONZALEZ ,33333333,CRISTINAAVILA,m.cristina@fordmylsaqueretaro.mx,paoseba1,1,XXXXXXX23,true,,,,,false,,,,1
23,Juan Carlos,suarez,hinojosa,33333333,juancarlossuarez,correo@correo.mx,taller10,1,XXXXXXX24,true,,,,,false,,,,1
24,Francisco,Foyo,Mancilla,4421577328,pacofoyo,f.foyo@fordmylsaqueretaro.mx,pjfoyo01,1,XXXXXXX25,true,,,,,false,,,,1
25,Adrian Felipe,Camarillo,Hernandez,4422811319,adrian,a.camarillo@fordmylsaqueretaro.mx,adrian,1,caha-720702,true,,,,,false,,,,14
26,Aldemar,Dorantes,Herrera,4421913688,aldemar,a.dorantes@fordmylsaqueretaro.mx,aldemar,1,doha-771224,true,,,,,false,,,,14
27,Beatriz Alejandra,Salazar,Arguello,4422375484,beatriz,b.salazar@fordmylsaqueretaro.mx,beatriz,1,saab800211,true,,,,,false,,,,14
28,Hannia Naomi,Flores,Resendiz,4421547433,hannia,h.flores@fordmylsaqueretaro.mx,hannia,1,forh961126,true,,,,,false,,,,14
29,Salvador,Jimenez,Diaz de Leon,4422196852,salvador,s.deleon@fordmylsaqueretaro.mx,salvador,1,jids840220,true,,,,,false,,,,14
30,Ulises,Arguello,,4271167483,ulises,u.arguello@fordmylsaqueretaro.mx,ulises,1,auej880422,true,,,,,false,,,,14
31,Juan Carlos,Hernandez,Ledesma,4422657856,juancarlossuarez,j.torres@fordmylsaqueretaro.mx,juancarlossuarez,1,tolj661023,true,,,,,false,,,,14
32,Miguel Angel,de Leon,,1111111111,miguel,m.deleon@fordmylsaqueretaro.mx,m322021L,1,XXXXXXX32,true,,,,,false,,,,14
33,Eduardo,Serrano,,1111111111,eduardo,e.serrano@fordmylsaqueretaro.mx,e3310Se,1,XXXXXXX33,true,,,,,false,,,,14